{
  "extras": [
    "lazyvim.plugins.extras.coding.tabnine",
    "lazyvim.plugins.extras.formatting.prettier",
    "lazyvim.plugins.extras.lang.clangd",
    "lazyvim.plugins.extras.lang.go",
    "lazyvim.plugins.extras.lang.markdown",
    "lazyvim.plugins.extras.lsp.none-ls",
    "lazyvim.plugins.extras.ui.alpha"
  ],
  "news": {
    "NEWS.md": "2123"
  },
  "version": 2
}